a,b,c,d,label
11,10,14,8,0
11,17,13,7,0
4,8,15,7,0
19,12,0,18,1
9,9,6,13,1
8,8,15,6,1
7,2,7,15,1
8,10,12,6,0
13,11,8,2,0
3,9,2,15,1
14,14,15,6,0
10,15,14,3,1
10,22,12,9,1
1,7,4,6,1
10,16,6,0,1
3,14,19,20,1
16,3,9,18,0
6,3,9,14,1
21,10,18,16,1
9,21,17,4,0
7,5,11,7,1
20,5,7,19,0
19,5,11,21,1
12,16,17,15,0
18,19,14,15,1
11,6,22,3,1
6,5,22,2,0
0,9,8,12,0
13,7,21,12,1
2,3,6,8,1
4,13,4,11,1
19,6,20,5,1
7,19,15,6,1
17,0,5,16,0
18,3,18,19,1
11,13,20,17,1
1,11,15,18,1
1,7,19,13,0
3,21,22,2,1
22,0,9,0,0
21,9,22,21,0
21,1,20,4,0
14,1,19,12,0
14,4,19,11,1
18,19,20,11,1
20,1,14,7,1
1,6,2,7,1
15,21,18,1,0
13,1,5,4,0
9,15,22,15,1
16,3,16,7,1
19,16,20,4,0
14,19,10,8,0
14,8,4,9,0
17,8,18,13,0
14,19,10,17,0
11,3,7,13,1
18,2,11,5,1
20,14,1,2,0
3,4,12,2,1
5,15,21,16,0
1,12,13,22,0
18,17,3,13,0
8,13,7,15,0
15,9,3,20,0
3,14,8,17,1
15,12,0,10,1
15,7,20,8,0
8,20,6,5,1
1,10,9,15,0
16,8,9,19,0
14,0,1,21,0
9,2,20,16,1
3,0,19,12,0
18,7,4,14,1
16,3,1,4,1
3,6,10,17,1
12,5,0,9,0
7,18,17,12,0
21,14,15,22,1
16,19,9,11,0
14,5,2,3,0
11,3,2,15,0
16,0,20,12,0
20,13,5,5,0
2,15,18,2,1
16,13,11,3,1
2,12,0,3,0
0,8,1,12,0
5,5,20,7,1
18,3,10,18,1
9,10,22,2,0
15,5,3,6,0
8,13,7,20,1
22,14,5,6,0
5,5,16,16,0
8,15,17,20,0
12,1,11,20,1
16,22,20,16,1
